1,2,0.697218839945875
2,3,6.241234221598878
3,4,3.5016362786348765
4,5,3.8148667601683033
5,6,5.582047685834502
6,7,2.5315568022440393
7,8,4.198223468910706
8,9,3.8148667601683033
4,10,4.770920991117345
10,11,6.725105189340814
11,12,4.4576905095839185
12,13,4.050958391771856
13,14,6.026180458158018
14,15,5.292192613370735
14,16,3.40345956054231
1,17,10.677886863020104
17,18,2.601683029453016
18,19,1.2318840579710144
19,20,3.997194950911642
20,21,1.1944834034595608
21,22,4.0252454417952315
22,23,3.195418419822347
23,24,1.774193548387097
22,25,6.351098644226275
25,26,3.3683964469378216
25,27,9.467040673211782
26,27,9.663394109396917
27,28,5.687237026647966
28,29,5.455820476858346
28,30,6.622253389434316
30,31,4.156147732585321
31,32,2.468443197755961
17,33,10.677886863020104
33,34,3.5390369331463307
34,35,3.606825619448341
35,36,1.407199625993455
36,37,3.328658251519402
37,38,2.9476390836839648
38,39,1.5801776531089295
37,40,6.510051425899954
40,41,9.892473118279572
41,42,5.797101449275363
42,43,2.6273959794296404
42,44,9.855072463768115
44,45,3.1486676016830297
40,46,3.5741000467508184
44,47,3.4361851332398317
33,48,10.677886863020104
48,49,3.8148667601683033
49,50,3.849929873772791
50,51,1.4165497896213184
51,52,3.1556802244039273
52,53,3.637213651238897
53,54,2.508181393174381
52,55,6.316035530621787
60,56,9.345488546049555
56,57,5.621785881252922
57,58,9.84805984104722
58,59,3.817204301075269
58,61,4.366526414212249
48,62,9.476390836839645
62,63,3.0972417017297804
63,64,6.692379616643292
64,65,3.8849929873772795
65,66,2.2557269752220668
66,67,2.3609163160355306
67,68,1.589527816736793
64,69,9.345488546049555
69,70,1.8326320710612438
70,71,2.0126227208976157
69,72,7.071061243571763
72,73,1.3277232351566153
73,74,1.825619448340346
74,75,8.637213651238898
75,76,2.573632538569425
75,77,2.4357176250584387
1,78,7.213651238896682
78,79,4.408602150537635
79,80,6.757830762038337
80,81,3.0388031790556336
80,82,3.5530621785881253
79,83,1.3043478260869568
83,84,3.2398316970546985
84,85,6.87470780738663
85,86,6.107994389901823
86,87,3.3239831697054703
87,88,2.2043010752688175
86,89,7.386629266012156
89,10,11.33707339878448
89,90,5.565684899485741
81,91,4.927536231884058
91,92,2.7395979429640023
92,93,2.358578775128565
93,94,2.0219728845254794
94,95,3.2842449742870503
95,96,5.769050958391772
90,96,10.191678354371202
96,97,10.481533426834972
91,98,4.9929873772791025
98,99,9.06030855539972
99,100,5.944366526414213
100,101,6.711079943899019
100,102,2.8190743338008417
99,102,1.5007012622720899
100,104,9.530154277699861
99,105,3.5764375876577845
105,106,2.5642823749415617
106,107,4.170172978027116
107,108,4.289387564282376
108,109,2.8915381019167836
109,110,3.1907433380084154